Chapter 21 Masking HR data | HR Analytics in R
…
UCI logo

It needs to be loaded first and let us preview it.

fertility <- read_csv("https://https://hranalytics.netlify.com/data/fertility_Diagnosis.txt", col_names = FALSE)

# Let us assign significant column titles
colnames(fertility) <- c("Season", "Age", "Child_Disease", "Accident_Trauma", "Surgical_Intervention","High_Fevers", "Alcohol_Consumption","Smoking_Habit","Hours_Sitting","Diagnosis")

# View fertility data
fertility

# A tibble: 100 x 10
   Season     Age Child_Disease Accident_Trauma Surgical_Interv~ High_Fevers
    <dbl>   <dbl>         <dbl>           <dbl>            <dbl>       <dbl>
 1  -0.33 0.69000             0               1                1           0
 2  -0.33 0.94                1               0                1           0
 3  -0.33 0.5                 1               0                0           0
 4  -0.33 0.75                0               1                1           0
 5  -0.33 0.67                1               1                0           0
 6  -0.33 0.67                1               0                1           0
 7  -0.33 0.67                0               0                0          -1
 8  -0.33 1                   1               1                1           0
 9   1    0.64                0               0                1           0
10   1    0.61                1               0                0           0
# ... with 90 more rows, and 4 more variables: Alcohol_Consumption <dbl>,
#   Smoking_Habit <dbl>, Hours_Sitting <dbl>, Diagnosis <chr>
…
